-------------------------------------------------------------------------------
Test set: stepDefintions.RunCukeTest
-------------------------------------------------------------------------------
Tests run: 6, Failures: 0, Errors: 0, Skipped: 0, Time elapsed: 15.07 sec
